7930,Mark onderwerpt Cassius aan een grondig onderzoek,"Chloe voelt zich verplicht David op de hoogte te brengen van haar clandestiene bijverdienste en smeekt hem om te zwijgen tegen zijn familie. Haar job bij Lassiters staat immers op het spel. Maar dan blijkt haar nieuwste klant iemand te zijn die ze kennen...

Mark onderwerpt Cassius aan een grondig onderzoek, maar dat lijkt niks op te leveren.

Yashvi beseft dat ze zich over haar verliefdheid op Ned moet zetten, maar dat is makkelijker gezegd dan gedaan.",https://images.vrt.be/orig/2020/01/08/1447dc6b-321f-11ea-aae0-02b7b76bf47f.jpg
7931,Chloe doet geheimzinnig over een klant,"Jemima overtuigt Karl om samen met haar de woonkamer onder handen te nemen. Maar wanneer Susan hen met een sloophamer in de weer ziet, slaan bij haar alle stoppen door.

Chloe wil niet verklappen wie haar volgende klant is, waardoor Aaron en Xanthe de verkeerde conclusie trekken en haar geheim nog verder verspreiden.

Leo en Terese zoeken wanhopig naar een plekje om samen te kunnen zijn.",https://images.vrt.be/orig/2020/01/14/ad5dcf62-36dd-11ea-aae0-02b7b76bf47f.jpg
7932,Paul boekt een rendez-vous,"Paul wil te weten komen wie er achter de gezelschapsservice zit en boekt een rendez-vous. Wanneer hij op de plaats van afspraak komt, ziet hij Chloe... met Shane. Wat opnieuw tot heel wat pijnlijke misverstanden leidt.

Jemima komt eindelijk met een verklaring voor haar bizarre gedrag. Karl is door het dolle heen, maar Susan heeft heel wat goed te maken. Leo en Terese worden in elkaars armen wakker. Maar is hun prille liefdesgeluk van lange duur?",https://images.vrt.be/orig/2020/01/13/10f3a916-35e8-11ea-aae0-02b7b76bf47f.jpg
7933,Leo en Terese plannen een romantische avond,"Chloe en Shane hebben een onschuldige verklaring voor hun ontmoeting, maar het is te laat. Chloe's reputatie heeft een ernstige deuk gekregen. Moet ze haar bijverdienste opgeven?

In een poging Shane op te beuren, probeert Dipi zijn speciale water verkocht te krijgen aan Gary. Maar die is meer geïnteresseerd in haar stimulerende thee.

Terese en Leo plannen opnieuw een romantische avond op de boot. Maar die zou weleens in het water kunnen vallen.",https://images.vrt.be/orig/2020/01/13/4b61926c-3615-11ea-aae0-02b7b76bf47f.jpg
7934,Mishti neemt een enorm risico,"Chloe stelt Leo en Terese voor een ultimatum. Slaagt ze er zo in zowel haar job als haar bijverdienste te houden?

Mark overtuigt Mishti om hem te helpen bij het ontmaskeren van Monique. Maar daarvoor neemt Mishti een enorm risico dat haar mogelijk zuur zal opbreken.

Aaron heeft last van afkickverschijnselen en ziet pijnstillers zitten in de tas van Xanthe. Kan hij de verleiding weerstaan en vertelt hij David dat hij een probleem heeft?",https://images.vrt.be/orig/2020/01/14/995c147c-36cf-11ea-aae0-02b7b76bf47f.jpg
7935,Cassius geeft Bea de volle laag,"Tijdens het herstellen van Cassius' wagen treft Bea een bijzondere sleutelhanger aan. Wanneer ze Cassius ermee confronteert, geeft hij haar de volle laag.

David wil er alles aan doen om Aaron te helpen bij zijn verslaving en is zelfs bereid zijn medische carrière voor hem op het spel te zetten.

Yashvi doet een poging om toenadering te zoeken tot Ned, maar Bea strooit, al dan niet bewust, roet in het eten. Is ze jaloers?",https://images.vrt.be/orig/2020/01/15/256c054c-377c-11ea-aae0-02b7b76bf47f.jpg
7936,Karl en Susan krijgen een bijzonder voorstel,"Susan doet nog een poging om haar schoonzus te overtuigen van haar goede wil. Maar Jemima heeft nog een duwtje nodig om te beseffen wat voor iemand Susan echt is. En dan doet ze Karl en Susan een voorstel dat hen achterover doet slaan.

Bea en Ned maken zich zorgen over de agressieve houding van Cassius en besluiten hem in de gaten te houden. Gary kan niet anders dan toegeven dat hij gevoelens heeft voor Amy.",https://images.vrt.be/orig/2020/01/16/119fa5b9-3847-11ea-aae0-02b7b76bf47f.jpg
7937,Gary gaat tot het uiterste voor Xanthe,"Karl en Susan overwegen het meer dan gulle bod van Jemima. Susan komt tot de conclusie dat geld niet per se gelukkig maakt, maar Karl denkt daar anders over.

Gary gaat tot het uiterste om Xanthe te helpen bij het betalen van haar studies en neemt daarbij een enorm risico.

Toadie heeft wat te veel van Dipi's opwekkende thee gedronken en zit met een gênant probleem. Kan Sonya hem ongezien naar huis smokkelen om van een nood een deugd te maken?",https://images.vrt.be/orig/2020/01/17/a3044058-3916-11ea-aae0-02b7b76bf47f.jpg
7938,Terese reageert jaloers op Pauls avontuurtje met Jemima,"Karl wordt er door een onaangename ervaring met Paul aan herinnerd dat geld het slechtste in mensen naar boven brengt en besluit het aanbod van Jemima af te slaan. Haar bittere reactie zet hem ertoe aan haar op haar plaats te zetten.

Gary zet zichzelf voor schut in het bijzijn van Rob en Amy en voelt zich een nietsnut, maar Amy stelt hem gerust. Terese reageert jaloers op Pauls avontuurtje met Jemima. En dat vindt Leo maar niks. Gaat hun relatie eigenlijk wel ergens heen?",https://images.vrt.be/orig/2020/01/20/fdb4acab-3b9a-11ea-aae0-02b7b76bf47f.jpg
7939,Piper voelt dat Terese iets verbergt voor haar,"Piper voelt dat Terese iets verbergt voor haar en vermoedt dat ze een nieuwe vriend heeft. Ze wil maar wat graag weten wie het is, maar Chloe probeert haar nieuwsgierigheid te temperen.

Karl moedigt Jemima aan om het bij te leggen met haar dochter Trudy, wat tot een verrassende beslissing leidt.

Mishti's plan heeft gewerkt: Monique wil meewerken aan het ten val brengen van Dilhan. Maar dan neemt Monique het heft in eigen handen, en dat heeft grote gevolgen.",https://images.vrt.be/orig/2020/01/21/d31e2b35-3c63-11ea-aae0-02b7b76bf47f.jpg
7940,Mark en Mishti besluiten hun plan uit te voeren,"Na het voorval met Dilhan, besluiten Mark en Mishti hun oorspronkelijke plan uit te voeren. Ze slagen erin om Monique te overmeesteren, maar dat wordt bij de politie niet bepaald op gejuich onthaald.

Xanthe merkt dat haar pijnstillers verdwenen zijn en na een bizarre ervaring met David beschuldigt ze de verkeerde persoon. Chloe zet haar bijverdienste als gezelschapsdame voort en krijgt een wel zeer bijzonder verzoek. Zal ze erop ingaan?",https://images.vrt.be/orig/2020/01/22/35f74883-3d39-11ea-aae0-02b7b76bf47f.jpg
7941,Xanthe uit haar bezorgdheden bij Karl,"Xanthe uit haar bezorgdheden bij Karl, die zich genoodzaakt ziet David te confronteren. Aaron wordt overmand door schuldgevoelens. Ondertussen overweegt Chloe om haar broers op de hoogte te brengen van haar gezondheidsproblemen. Yashvi is smoorverliefd op Ned, maar hij heeft zijn zinnen op iemand anders gezet. En Dipi maakt een slechte beurt bij haar toekomstige schoonmoeder.",https://images.vrt.be/orig/2020/01/28/74c988e8-41a7-11ea-aae0-02b7b76bf47f.jpg
7942,Ned loopt op wolkjes,"Ned loopt op wolkjes na zijn kus met Bea. Maar zijn z'n gevoelens wel wederzijds? Bea heeft het drama met Finn immers nog niet verwerkt. Bovendien wil ze zich focussen op haar onderzoek naar Cassius.

Ondertussen is Piper verliefder dan ooit. Ze kan zich niet langer bedwingen en belandt in bed met Cassius.

Gary zorgt voor een opstootje in het wellnesscentrum, wat Steph doet concluderen dat hij niet geschikt is als manager. En zo dreigt er een zware financiële kater voor hem.",https://images.vrt.be/orig/2020/01/29/8d18c56f-427c-11ea-aae0-02b7b76bf47f.jpg
7943,Cassius komt in heel nauwe schoentjes terecht,"Cassius komt in heel nauwe schoentjes terecht en ziet geen andere mogelijkheid dan naar het buitenland te vluchten, maar niet zonder afscheid te nemen van Piper.

Ondertussen duiken Bea en Ned in het verleden van Cassius en zo vallen de puzzelstukken in elkaar. Maar kunnen ze Piper op tijd waarschuwen?

Gary krijgt de moeder van Jeremy over de vloer. Hij slaagt erin medelijden bij haar op te wekken, maar zal dat genoeg zijn om haar zoon op een afstand te houden?",https://images.vrt.be/orig/2020/01/30/abcc8f99-4361-11ea-aae0-02b7b76bf47f.jpg
7944,Cassius probeert Piper te overtuigen om met hem mee te gaan,"Cassius probeert Piper te overtuigen om met hem mee te gaan, maar ze ziet het niet zitten om haar vrienden en familie achter te laten. Wanneer ze hoort wat hij voor haar heeft gedaan, begint ze te twijfelen en besluit ze hem nog één keer op te zoeken. Ondertussen zoeken Bea, Ned en Mark koortsachtig naar aanwijzingen over wie Cassius echt is. Maar het is Aaron die voor de doorbraak zal zorgen.",https://images.vrt.be/orig/2020/02/03/7100ede4-466c-11ea-aae0-02b7b76bf47f.jpg
7945,Vrienden en familie proberen Piper op te sporen,"Het personeel van Lassiters zet z'n beste beentje voor om indruk te maken op een steenrijke hotelgast. Leo draagt Chleo dan ook op om zich professioneel te gedragen.

De vrienden en familie van Piper zetten alles op alles om Cassius op het spoor te komen, voor hij samen met haar het land kan ontvluchten.

Paul werpt zich op als steun en toeverlaat voor Terese, en dat is niet naar de zin van een jaloerse Leo.",https://images.vrt.be/orig/2020/02/03/f4bf7aaf-4687-11ea-aae0-02b7b76bf47f.jpg
7946,Cassius bekent alles aan Piper,"Piper confronteert Cassius met wat ze weet. Hij bezwijkt onder de druk en bekent haar alles, ook dat Tyler door zijn daden onschuldig in de gevangenis zit. Hoe zal Piper reageren?

Ned en Bea zitten Cassius op de hielen, maar dan wordt de herinnering aan wat Finn haar heeft aangedaan Bea plots te veel.

Ondertussen doet Leo zijn uiterste best om Terese te kalmeren.

Chloe wijst een afspraakje met Pierce af, maar dat is buiten de gewiekste zakenman gerekend.",https://images.vrt.be/orig/2020/02/04/a56df604-473f-11ea-aae0-02b7b76bf47f.jpg
7947,Cassius weigert mee te werken met de politie,"Wanneer Cassius weigert mee te werken met de politie, slaat de wanhoop toe bij Piper en de Brennans. Kunnen ze Cassius alsnog overtuigen om de moord op Hamish te bekennen? Dat zou de vrijlating van Tyler betekenen. Maar is Piper daar wel klaar voor?

Mishti komt te weten waarom Pavan haar heeft laten zitten. En tot haar grote woede blijkt Dipi daar voor iets tussen te zitten.",https://images.vrt.be/orig/2020/02/05/af60b5bf-4822-11ea-aae0-02b7b76bf47f.jpg
7948,Gary stort zijn hart uit bij Amy,"Gary zit tot over zijn oren in de schulden en stort zijn hart uit bij Amy. Ondertussen begint Xanthe aan zichzelf te twijfelen en biedt ze Gary een mogelijke uitweg uit zijn financiële zorgen.

Op aanraden van Paul gaat Dipi tot het uiterste om haar onschuld te bewijzen aan Mishti. Maar is dat wel een goed idee?

De onthullingen over Cassius zetten Paul aan het denken: hij wil niet dat zijn dochter hetzelfde overkomt als Piper en besluit uit te zoeken of dokter Rob wel zo perfect is als hij lijkt.",https://images.vrt.be/orig/2020/02/06/253c03b8-48fc-11ea-aae0-02b7b76bf47f.jpg
7949,Amy staat versteld van Robs voorstel,"Chloe geniet van een heerlijk avondje uit met de charismatische Pierce. Maar dan doet hij haar een aanbod dat alles op de helling zet.

Amy staat versteld van Robs voorstel en wil de boot nog even afhouden, maar dat is buiten Paul gerekend.

Susan ziet dat Karl zijn zus mist en moedigt hem aan om haar en de rest van zijn familie te gaan bezoeken in Boston.",https://images.vrt.be/orig/2020/02/07/2e31b46d-4997-11ea-aae0-02b7b76bf47f.jpg
7950,Chloe voelt zich steeds meer aangetrokken tot Pierce,"Chloe voelt zich steeds meer aangetrokken tot Pierce en overweegt in te gaan op zijn voorstel. Een bezorgde Elly probeert daar een stokje voor te steken, maar dat heeft een averechts effect.

Gary werkt zichzelf steeds dieper in de nesten en dreigt Xanthe teleur te stellen. Maar dan komt Amy met een wel heel gul aanbod op de proppen. Yashvi weigert het bij te leggen met Bea, tot ze zich samen over Xanthe moeten ontfermen.",https://images.vrt.be/orig/2020/02/10/d24b688a-4c16-11ea-aae0-02b7b76bf47f.jpg
7951,Een teleurgestelde Rob reageert zich af op Gary,"Piper en de Brennan-broers wachten in spanning de mogelijke vrijlating van Tyler af.

Ondertussen doet Cassius een wanhopige poging om Piper te zien te krijgen. Hij schakelt daarvoor Sheila in, maar dat is niet naar de zin van Aaron en Mark.

Een teleurgestelde Rob reageert zich af op Gary, maar dat valt niet in goede aarde bij Amy.",https://images.vrt.be/orig/2020/02/11/44597195-4cb7-11ea-aae0-02b7b76bf47f.jpg
7952,Tyler wordt overgebracht naar het politiekantoor van Erinsborough,"Tyler wordt overgebracht naar het politiekantoor van Erinsborough, waar Piper staat te popelen om hem terug te zien. Maar dat ze een relatie heeft gehad met Cassius, valt Tyler heel zwaar.

Chloe heeft het moeilijk met de tegenstrijdige signalen die Pierce haar geeft. Sonya en Toadie moeten dringend opvang vinden voor Nell, want hun huishouden dreigt in chaos te verzanden.",https://images.vrt.be/orig/2020/02/12/11696902-4d73-11ea-aae0-02b7b76bf47f.jpg
7953,Het lukt Piper en Tyler niet om de draad weer op te pikken,"Het lukt Piper en Tyler niet om de draad weer op te pikken na wat er de afgelopen maanden allemaal is gebeurd. Amy en Gary geven voorzichtig toe aan hun gevoelens voor elkaar, maar dat is absoluut niet naar de zin van Paul. En dan weet hij nog niet dat ook Terese en Leo een onaangename verrassing voor hem in petto hebben. Elly moedigt Chloe aan om duidelijkheid te vragen bij Pierce, maar Chloe besluit zich te focussen op de terugkeer van Tyler.",https://images.vrt.be/orig/2020/02/13/9ac50e19-4e7f-11ea-aae0-02b7b76bf47f.jpg
7954,Paul is nog niet bekomen van het nieuws van Amy en Gary,"Paul is nog niet bekomen van het nieuws van Amy en Gary, wanneer hij Leo en Terese betrapt tijdens een innige omhelzing. Hij reageert woest en neemt enkele drastische beslissingen.

Dipi doet er alles aan Pavan te overtuigen van Mishti's onschuld. Shane en Toadie willen het bierrecept van Doug nieuw leven inblazen. Ned is niet helemaal overtuigd van hun werkwijze, maar besluit hen toch te helpen.",https://images.vrt.be/orig/2020/02/14/a060811c-4f23-11ea-aae0-02b7b76bf47f.jpg
7955,Mishti neemt een ingrijpende beslissing,"Leo en Terese moeten de gevolgen dragen van hun stiekeme gedrag. Piper lijkt begrip te hebben voor de situatie, maar Paul verklaart hen de oorlog en zet Leo op straat. Ned moedigt Bea aan om de confrontatie aan te gaan met Cassius. En dat zet haar aan het denken: zou een gesprek met Finn ook een helend effect hebben? En Mishti neemt een ingrijpende beslissing die gevolgen heeft voor haar hele familie.",https://images.vrt.be/orig/2020/02/17/4b8afd61-5168-11ea-aae0-02b7b76bf47f.jpg
7956,Tyler neemt een dratische beslissing,"In de hoop het verleden achter zich te kunnen laten, neemt Tyler een drastische beslissing: hij wil de confrontatie aangaan met Cassius. Maar is dat wel een goed idee? Piper heeft er alvast haar twijfels bij.

Paul wil Amy laten inzien dat Gary geen goede partij is voor haar en dat ze beter af is met Rob, maar zijn bemoeienissen vallen niet in goede aarde.

En Terese moet wennen aan de snelheid waarmee haar relatie met Leo evolueert.",https://images.vrt.be/orig/2020/02/18/fae5b594-522f-11ea-aae0-02b7b76bf47f.jpg
7957,Bea en Ned groeien steeds meer naar elkaar toe,"Tyler voelt zich gekwetst door de beschuldigingen van Piper en ook een poging van zijn broers om hem op te beuren, draait op niks uit.

Aarons rancune tegenover Cassius bereikt een hoogtepunt, met mogelijk verstrekkende gevolgen. Kan David hem nog tegenhouden?

Bea en Ned groeien steeds meer naar elkaar toe. Maar net wanneer Bea hem wil vertellen dat ze verliefd is op hem, doet Ned een schokkende bekentenis.",https://images.vrt.be/orig/2020/02/19/0e73b1d7-5300-11ea-aae0-02b7b76bf47f.jpg
7958,David is woest op Aaron,"Tyler wordt achtervolgd door de gedachte dat zijn leven in Ramsay Street nooit meer hetzelfde zal kunnen zijn en hij neemt een hartverscheurende beslissing.

Terese is ervan overtuigd dat Paul iets aan het bekokstoven is met Pierce en schakelt Chloe in om daarvan bewijzen te verzamelen.

David is woest op Aaron en dat zet hem aan het denken.

En ondanks haar gevoelens voor hem worstelt Bea met het duistere verleden van Ned. Is een relatie met hem wel goed voor haar mentale welzijn?",https://images.vrt.be/orig/2020/02/20/ee404313-53e0-11ea-aae0-02b7b76bf47f.jpg
7959,Elly en Mark komen in een gênante situatie terecht,"Chloe komt dankzij Pierce te weten wat Paul in zijn schild voert. Maar wanneer hij haar vervolgens een dure armband cadeau doet, vraagt ze zich af of ze die informatie nu wel kan doorspelen aan Terese.

Elly en Mark komen in een gênante situatie terecht, maar dat heeft wel positieve gevolgen voor hun relatie.

Sonya botst op een behulpzame dame die ook nog eens kinderoppas blijkt te zijn. Is deze mysterieuze vrouw de redding voor haar chaotische huishouden?",https://images.vrt.be/orig/2020/02/24/f13a2da0-56e6-11ea-aae0-02b7b76bf47f.jpg
7960,Is Alice wel wie ze beweert te zijn?,"Alice blijkt al snel een zegen te zijn voor de Rebecchi's: ze kan poetsen, koken én voor de kinderen zorgen. Wanneer ze familiale problemen blijkt te hebben, vragen ze haar om bij hen in te trekken. Maar is Alice wel wie ze beweert te zijn?

Amy en Gary besluiten hun relatie naar een hoger niveau te tillen, maar het verwachte vuurwerk blijft uit.

Paul voelt zich verraden door zijn kinderen en zint nog steeds op wraak. Susan probeert op hem in te praten. Kan ze een gevoelige snaar raken?",https://images.vrt.be/orig/2020/02/25/2636b3a4-57a9-11ea-aae0-02b7b76bf47f.jpg
7961,Gary en Amy ondernemen actie,"De Rebecchi's verheugen zich op de intrek van Alice. Hopelijk krijgen ze daar geen spijt van.

Wanneer Piper het medaillon van Cassius terugvindt, beslist ze om het terug te brengen. Maar verder wil ze niks meer met hem te maken hebben, hoewel het lot daar wel eens anders over zou kunnen beslissen.

Bij Gary en Amy loopt het in de slaapkamer niet zo vlot als ze verwacht hadden, het is tijd om actie te ondernemen.",https://images.vrt.be/orig/2020/02/26/625c6c92-587a-11ea-aae0-02b7b76bf47f.jpg
7962,Paul zoekt een bondgenoot in Chloe,"Piper kan het idee van een mogelijke zwangerschap niet aanvaarden, maar tegelijkertijd zoekt ze wel weer toenadering tot Cassius.

Paul blijf het moeilijk hebben met de relatie van Therese en Leo en zoekt een bondgenoot in Chloe om Therese terug te pakken.

Neds schuldgevoel begint aan hem te knagen en hij beslist Cassius te bezoeken en zijn verontschuldigingen aan te bieden. Aaron doet hem een voorstel om zijn schuld af te betalen.",https://images.vrt.be/orig/2020/02/27/8642678b-593c-11ea-aae0-02b7b76bf47f.jpg
7963,Alice broedt op een nieuw plan,"Alice moet tot haar grote spijt vaststellen dat ze niet in haar opzet is geslaagd, maar met de informatie die ze van Dipi heeft, broedt ze al snel op een nieuw plan.

Intussen geraakt Ned er steeds meer van overtuigd dat Paul wel iets te maken zou kunnen hebben met Chloe's plotse rijkdom. Wanneer Terese dit te horen krijgt, confronteert ze Chloe.",https://images.vrt.be/orig/2020/02/28/5a67bf81-5a0b-11ea-aae0-02b7b76bf47f.jpg
7964,Alice haar plannetje lijkt te lukken,"Alice haar plannetje lijkt te lukken en de verdwijning van Nell zorgt voor de nodige spanningen tussen Toadie en Sonya.

Gary krijgt van Jeremy meer info over de verblijfplaats van Finn; hij geeft hem het adres van een vakantiehuisje. Gary wil er meteen zelf naartoe gaan, maar Amy kan hem toch overtuigen om de politie in te schakelen. Ze wachten in spanning af wat de politie zal aantreffen.",https://images.vrt.be/orig/2020/03/02/8f1c3eb1-5c60-11ea-aae0-02b7b76bf47f.jpg
7965,Sheila vindt een zwangerschapstest in de zak van Xanthe,"Alice zorgt ervoor dat Sonya achter de geheime betalingen van Toadie voor Andrea komt, wat de relatie tussen Toade en Sonya niet ten goede komt. Alice gooit nog wat meer olie op het vuur en ziet haar plan slagen.

Bea beslist het heft in eigen handen te nemen in de zoektocht naar Finn en gaat praten met zijn ex-vrouw. Sheila vindt een zwangerschapstest in de zak van Xanthe en probeert erachter te komen of die van haar is. Zal Xanthe Pipers geheim prijsgeven?",https://images.vrt.be/orig/2020/03/03/22b6a8f9-5d59-11ea-aae0-02b7b76bf47f.jpg
7966,Paul zint nog steeds op wraak,"Paul zint nog steeds op wraak en trekt met foutieve informatie over Gary naar Steph, wat verstrekkende gevolgen heeft. Pauls triomf is echter van korte duur, want een woeste Amy neemt een drastische beslissing.

Nu Sheila weet wat Piper te verbergen heeft, probeert ze Cassius op andere gedachten te brengen. Maar ze praat al snel haar mond voorbij. Chloe geniet met volle teugen van de aandacht en de geschenken van Pierce. Maar is hun relatie nog wel louter zakelijk?",https://images.vrt.be/orig/2020/03/05/d0c43577-5ee6-11ea-aae0-02b7b76bf47f.jpg
7967,Cassius wil weten of Piper zwanger is of niet,"Cassius wil dat Piper hem de waarheid vertelt: is ze zwanger van hem of niet? Met de steun van haar moeder besluit ze de realiteit onder ogen te zien en na te denken over haar toekomst.

Wanneer Toadie en Sonya opvang vinden voor Nell, dreigt het plan van Alice in het water te vallen. Ze moet dan ook drastische maatregelen nemen. Leo voelt een afstand tussen hem en Terese en confronteert haar met zijn onzekerheden.",https://images.vrt.be/orig/2020/03/06/2e3943dd-5f92-11ea-aae0-02b7b76bf47f.jpg
7968,Bea gaat op zoek naar een manier om haar trauma te verwerken,"Alice slaagt er opnieuw in een wig te drijven tussen Sonya en Toadie. Bovendien manipuleert ze Nell om haar zin te krijgen. Waar zal dit eindigen?

Bea gaat op zoek naar een manier om het trauma te verwerken dat Finn haar heeft bezorgd. Maar dan komt ze oog in oog te staan met haar grootste angst.

Piper komt te weten dat Sheila degene is die Cassius heeft verteld over haar mogelijke zwangerschap. Sheila vreest een kwade reactie, maar niks is minder waar.",https://images.vrt.be/orig/2020/03/09/ca1c45d3-61fa-11ea-aae0-02b7b76bf47f.jpg
7969,Elly en Susan gaan op zoek naar Bea,"Wanneer Elly en Susan te horen krijgen dat Bea niet is komen opdagen voor haar therapiesessie, gaan ze samen met Xanthe op zoek naar haar. Ondertussen probeert Bea wanhopig een manier te bedenken om te ontsnappen. Voor ze het weten, bevinden de vier vrouwen zich in een levensbedreigende situatie.

Alice schakelt Yashvi in voor de volgende stap in haar duivelse plannen en komt op die manier te weten wat Sonya's zwakke plek is.",https://images.vrt.be/orig/2020/03/10/9aea4c26-62b5-11ea-aae0-02b7b76bf47f.jpg
7970,Elly neemt het voortouw na het incident,"Elly, Bea, Susan en Xanthe ondergaan elk op hun eigen manier de gevolgen van het dramatische incident. Elly neemt het voortouw en zorgt ervoor dat ze tot een consensus komen: niemand mag ooit te weten komen wat er is gebeurd.

Gary en Amy denken dat ze eindelijk van Paul verlost zijn, maar dan komt hij met een nieuw voorstel op de proppen. Kan Amy het verleidelijke aanbod weerstaan?

Ondertussen broeden Terese en Pierce op een plan om Paul te grazen te nemen.",https://images.vrt.be/orig/2020/03/18/b7690d87-68f6-11ea-aae0-02b7b76bf47f.jpg
7971,Terese en Pierce slagen in hun plan,"Bea wordt overmand door schuldgevoelens en lucht haar hart bij Susan, die haar probeert te overtuigen om hun geheim te bewaren. Maar bezwijkt Bea alsnog onder de druk van haar geweten?

Terese en Pierce slagen erin om Paul buitenspel te zetten, maar voor Pierce staat of valt de deal met Chloe. En die voelt zich steeds ongemakkelijker bij zijn romantische gevoelens voor haar.

Amy verzekert Gary dat Paul niet opnieuw tussen hen in zal komen, maar Gary is niet overtuigd.",https://images.vrt.be/orig/2020/03/18/8582d48f-6908-11ea-aae0-02b7b76bf47f.jpg
7972,Leo worstelt met de plannen van Terese,"Alice schakelt nog een versnelling hoger in haar plan om Sonya en Toadie uit elkaar te drijven.

Chloe wil een einde maken aan haar overeenkomst met Pierce, maar haar loyauteit tegenover Terese houdt haar tegen. Hoelang kan ze dit nog volhouden?

Leo worstelt met de plannen van Terese om Paul onderuit te halen, maar besluit haar toch te steunen. Is dit de doodsteek voor de relatie met zijn vader?",https://images.vrt.be/orig/2020/03/13/aeba44e7-6516-11ea-aae0-02b7b76bf47f.jpg
7973,Alice maakt een inschattingsfout,"Alice maakt een inschattingsfout door te flirten met Karl, maar het saboteren van Sonya verloopt helemaal volgens plan.

Paul probeert Gary opnieuw een loer te draaien, maar weer is Gary hem te slim af. Dat is voor een vernederde Paul de spreekwoordelijke druppel en hij gaat helemaal door het lint.

Aaron doet een poging om David op te beuren, maar slaat de bal helemaal mis.",https://images.vrt.be/orig/2020/03/20/87115aac-6a84-11ea-aae0-02b7b76bf47f.jpg
7974,Paul weigert zich te verontschuldigen tegenover Gary,"Chloe probeert haar trip met Pierce zo zakelijk mogelijk te houden, maar Pierce is tot over zijn oren verliefd en overdondert haar met zijn gevoelens. Ze ziet geen andere mogelijkheid dan het letterlijk op een lopen te zetten.

Alice is van slag door Toadies bezoek aan Andrea en moet drastische maatregelen nemen. Paul weigert zich te verontschuldigen tegenover Gary, wat Terese op een idee brengt. Wordt dit de genadeslag voor Paul?",https://images.vrt.be/orig/2020/03/23/3f69c5e3-6d02-11ea-aae0-02b7b76bf47f.jpg
7975,Pierce slaat alarm bij Mark,"Wanneer Pierce merkt dat Chloe verdwenen is, slaat hij alarm bij Mark, die meteen een zoekactie op touw zet.

Ondertussen schakelt een wanhopige Chloe Elly in om haar te helpen bij een wel heel drastische oplossing voor haar problemen.

Yashvi ziet zich genoodzaakt om de ring van Chloe te verkopen en maakt de cruciale fout om Paul te vertellen waar het kostbare sieraad vandaan komt. Is dit het ontbrekende puzzelstukje waarmee hij zijn hotel toch kan redden?",https://images.vrt.be/orig/2020/04/01/d2dbe9af-7404-11ea-aae0-02b7b76bf47f.jpg
7976,Paul grijpt zijn kans om Terese het leven zuur te maken,"Elly kan Chloe overtuigen om niet te vluchten en haar broers de waarheid te vertellen over Pierce, maar Mark reageert niet helemaal zoals verwacht.

Nu Pierce zich heeft teruggetrokken uit de deal, grijpt Paul zijn kans om Terese het leven zuur te maken. In een wanhopige poging om Pierce weer aan boord te halen, neemt Terese dan ook een gigantisch risico.

Bea, Elly, Susan en Xanthe krijgen het steeds moeilijker om hun geheim te bewaren.",https://images.vrt.be/orig/2020/03/23/367de17c-6d4d-11ea-aae0-02b7b76bf47f.jpg
7977,Amy gaat gebukt onder de wraakacties van Paul,"Paul is er als de kippen bij om Leo op de hoogte te brengen van wat hij Terese heeft zien doen. Is dit de doodsteek voor hun reeds fragiele relatie?

Ook Amy gaat gebukt onder de wraakacties van Paul en staat op het punt haar job op te geven. Kan Gary haar overtuigen om door te zetten? Nu ze Sonya in haar macht geeft, vindt Alice dat het tijd wordt om nog een tandje hoger te schakelen.",https://images.vrt.be/orig/2020/03/24/11364029-6dce-11ea-aae0-02b7b76bf47f.jpg
7978,Ontdekt Toadie de link tussen Andrea en Alice voor er slachtoffers vallen?,"Wanneer blijkt dat Finn een boosaardig plan aan het uitvoeren was dat haar leerlingen in gevaar had kunnen brengen, slaan bij Susan de stoppen door.

Alice kan David overtuigen om haar nog zwaardere pijnstillers voor te schrijven, maar ze is er zich niet van bewust dat Toadie besloten heeft om Andrea's moeder op te sporen. Ontdekt Toadie de link tussen Andrea en Alice voor er slachtoffers vallen?",https://images.vrt.be/orig/2020/03/25/b10f617a-6e77-11ea-aae0-02b7b76bf47f.jpg
7979,Het vreemde gedrag van Bea wekt achterdocht op bij Mark,"Terwijl Elly Susan probeert te kalmeren, wekt het vreemde gedrag van Bea achterdocht op bij Mark. De vrouwen zien stilaan geen andere optie meer dan hem de waarheid te vertellen.

Alice schakelt Dipi in om een zaadje van wantrouwen te planten bij Toadie. Hoewel Aaron en David het maar niet eens raken over de opvoeding van hun goudvis, beginnen ze toch al na te denken over een mogelijke uitbreiding van hun gezinnetje.",https://images.vrt.be/orig/2020/03/26/c9ebfbf5-6f3f-11ea-aae0-02b7b76bf47f.jpg
7980,Op aanraden van Mark gaat Susan naar de politie,"Op aanraden van Mark gaat Susan naar de politie om zichzelf aan te geven. Het ziet ernaar uit dat haar niks zal worden aangerekend, tot ze bezwijkt onder de druk van haar geweten en ze zichzelf aan de galg praat. De situatie heeft ook gevolgen voor de relatie van Mark en Elly.

Alice is er meer dan ooit van overtuigd dat Toadie de perfecte man is voor Andrea en ze verzekert haar dochter dat ze er alles aan zal doen om hen weer bij elkaar te brengen.",https://images.vrt.be/orig/2020/03/27/06e3800b-7018-11ea-aae0-02b7b76bf47f.jpg
7981,Susan moet de gevolgen dragen van haar beslissing,"Susan moet de gevolgen dragen van haar beslissing om zich te gaan aangeven bij de politie, en die zijn niet mals. Ze krijgt steun van Bea, maar Karl is teleurgesteld in haar en ook de andere buren hebben het moeilijk met wat ze heeft gedaan.

Bovendien komt niet alleen haar job, maar ook die van Elly in het gedrang. Pauls kinderen en vrienden hebben een ingenieus plan op touw gezet om hem uit zijn neerwaartse spiraal te halen, maar zal het ook werken?",https://images.vrt.be/orig/2020/03/30/931a6a2c-7285-11ea-aae0-02b7b76bf47f.jpg
7982,Aaron en David nemen een belangrijke beslissing,"Terese voelt zich onzeker over het leeftijdsverschil tussen haar en Leo en heeft schrik om zich aan hem te binden. Kan Piper haar op andere gedachten brengen?

Paul geniet van het gezelschap van Jane, maar slaagt er nog steeds niet in alle negativiteit en jaloezie van zich af te schudden. Aaron en David nemen een belangrijke beslissing over hun toekomst en schakelen de hulp in van Elly, voor wie het een welgekomen afleiding is van haar problemen op school.",https://images.vrt.be/orig/2020/04/08/9f4ce768-79b5-11ea-aae0-02b7b76bf47f.jpg
7983,De plannen van Aaron en David slaan in als een bom,"De plannen van Aaron en David slaan in als een bom bij Chloe, die niet anders zal kunnen dan haar broers eindelijk de waarheid te vertellen over haar gezondheidsproblemen.

Wanneer Alice hoort wat Toadie van plan is, slaat ze in paniek en besluit ze een enorm risico te nemen. Elly doet haar uiterste best om een goede indruk te maken bij de nieuwe schooldirecteur, maar het wordt al snel duidelijk dat dat niet makkelijk zal worden.",https://images.vrt.be/orig/2020/04/10/bfcb56c4-7b47-11ea-aae0-02b7b76bf47f.jpg
7984,Alice wordt op heterdaad betrapt door Ned,"Alice wordt op heterdaad betrapt door Ned, maar ze slaagt erin hem om de tuin te leiden. Meer nog, ze wordt door Toadie en Sonya geprezen voor haar heldendaad. En zo kan ze de laatste fase inzetten van haar plan om hun huwelijk te doen stranden.

De Brennans en hun geliefden moeten bekomen van het schokkende nieuws van Chloe. Mark wil meteen actie ondernemen, maar Aaron blijft liever in het ongewisse over zijn toestand. En dat tot grote ontsteltenis van David.",https://images.vrt.be/orig/2020/03/31/fe3440e9-7370-11ea-aae0-02b7b76bf47f.jpg
7985,Alice speelt Toadie en Sonya tegen elkaar uit,"Alice speelt Toadie en Sonya tegen elkaar uit en slaagt er op die manier in om een conflict te creëren. Ondertussen begint Sonya ook de fysieke gevolgen te voelen van de kwaadaardige plannen van Alice.

Yashvi en Xanthe moedigen een onzekere Bea aan om haar gevoelens voor Ned niet langer te onderdrukken. Sheila is verheugd over haar trip naar Nieuw-Zeeland, maar de spanningen tussen haar en Xanthe zijn een domper op de feestvreugde.",https://images.vrt.be/orig/2020/04/01/bd9ecaf3-741f-11ea-aae0-02b7b76bf47f.jpg
7986,Jane heeft een positieve invloed op Paul,"Jane heeft een positieve invloed op Paul, maar hoe zal ze reageren als ze te weten komt waarvoor ze naar Erinsborough is gehaald?

Terese wordt nog maar eens geconfronteerd met het grote leeftijdsverschil tussen haar en Leo. Kan Jane haar voor eens en voor altijd geruststellen?

Alice probeert Toadie ervan te overtuigen dat het gedrag van Sonya een negatieve impact heeft op Nell, maar hij is niet onder de indruk. Is Alice een stap te ver gegaan?",https://images.vrt.be/orig/2020/04/02/9895d123-74d6-11ea-aae0-02b7b76bf47f.jpg
7987,Mark is nerveus voor de resultaten van zijn test,"Paul beseft dat hij zichzelf zal moeten heruitvinden als hij een kans wil maken bij Jane. Ze is bereid hem die kans te geven, maar dan wel op één voorwaarde: hij moet het bijleggen met zijn familie.

Mark is nerveus voor de resultaten van zijn test en reageert zich af op Bea. En dat is niet naar de zin van Ned. Elly neemt het niet al te nauw met de strenge regels van Jane, en dat heeft zware gevolgen voor haar carrière.",https://images.vrt.be/orig/2020/04/03/06480475-75b3-11ea-aae0-02b7b76bf47f.jpg
7988,Na haar ontslag zoekt en vindt Elly steun bij Chloe,"Na haar ontslag zoekt en vindt Elly steun bij Chloe, die overweldigd door de emoties een impulsieve beslissing neemt. David wil absoluut dat Aaron zich laat testen, maar Aaron weigert: hij wil zijn familie niet nog meer kopzorgen geven.

Susan gaat de confrontatie aan met Jane en wijst haar op haar bedenkelijke beslissingen. Maar Jane is niet van plan zich zomaar gewonnen te geven.",https://images.vrt.be/orig/2020/04/06/c1c932f8-77f6-11ea-aae0-02b7b76bf47f.jpg
7989,Elly doet haar best om Mark te overtuigen van haar liefde voor hem,"Na wat er gebeurd is met Chloe, doet Elly haar uiterste best om Mark te overtuigen van haar liefde voor hem. En hoewel ook Chloe het incident van zich af probeert te schudden, beseft ze maar al te goed dat er meer achter zat.

Ondertussen krijgt Mark de resultaten van zijn test, wat Aaron ertoe aanzet zich ook eindelijk te laten onderzoeken. En wanneer Sonya eronderdoor gaat, wordt duidelijk dat het psychologische spel van Alice z'n tol begint te eisen.",https://images.vrt.be/orig/2020/04/07/4a9a5f37-78c6-11ea-aae0-02b7b76bf47f.jpg
7990,Sonya is helemaal de kluts kwijt,"Sonya is helemaal de kluts kwijt. Wanneer een nietsvermoedende Toadie haar achterlaat bij Alice, slaat ze dan ook al snel op de dool. Iets wat Alice maar al te graag laat gebeuren.

Gary worstelt met zijn financiële afhankelijkheid van Amy. Kunnen ze tot een regeling komen waar Gary zich minder schuldig bij voelt? En ook Xanthe heeft het moeilijk om haar vader zo hulpeloos te zien en besluit het heft in eigen handen te nemen.",https://images.vrt.be/orig/2020/04/08/eb76807a-7983-11ea-aae0-02b7b76bf47f.jpg
7991,Toadie is nog steeds op zoek naar Sonya,"Toadie is nog steeds op zoek naar Sonya en begint het ergste vrezen. Ondertussen vergt het heel veel van Sonya om aan de verleiding te weerstaan. Betekent dit dat Alice in haar opzet is geslaagd?

Gary krijgt een verdachte jobaanbieding die hij in eerste instantie afslaat, tot hij hoort dat Xanthe wil helpen bij het terugbetalen van Amy's lening. Susan krijgt het steeds moeilijker met de gevolgen van haar daden.",https://images.vrt.be/orig/2020/04/09/8cde8c41-7a57-11ea-aae0-02b7b76bf47f.jpg
7992,Alice moet haar duistere plannen opnieuw bijsturen,"Nu Sonya weer veilig thuis is, moet Alice haar duistere plannen opnieuw bijsturen en een versnelling hoger schakelen. En dat zou weleens fatale gevolgen kunnen hebben.

Piper begint zich vragen te stellen bij het mysterieuze gedrag van Toadie. Na haar initiële succes bij het herenigen van de Robinsons wil Jane nu ook een etentje organiseren met de hele familie, maar dat blijkt al snel overmoedig te zijn geweest.",https://images.vrt.be/orig/2020/04/10/ee9f34cd-7b2c-11ea-aae0-02b7b76bf47f.jpg
7993,Toadie maakt zich ernstige zorgen over Sonya,"Toadie maakt zich ernstige zorgen over Sonya. Alles wijst er namelijk op dat ze hervallen is in haar oude gewoontes en dat ze daarover heeft gelogen tegen hem. Maar hij weet niet dat ze ergens moederziel alleen langs de kant van de weg ligt en dat ze dringend hulp nodig heeft.

Chloe worstelt met haar gevoelens voor haar toekomstige schoonzus.

En Jane zet alles op alles om het goed te maken met Paul.",https://images.vrt.be/orig/2020/04/15/09c883d3-7f48-11ea-aae0-02b7b76bf47f.jpg
7994,Chloe excuseert zich voor haar gedrag,"Willow arriveert in Ramsay Street en voelt meteen dat er iets niet pluis is. Wanneer ze haar dood gewaande grootmoeder tegen het lijf loopt, vallen de puzzelstukjes al snel in elkaar. Maar kan ze Toadie waarschuwen voor het te laat is?

Chloe excuseert zich voor haar gedrag en ziet geen andere optie dan haar gevoelens voor Elly te onderdrukken.

En Aaron krijgt schokkend nieuws dat mogelijk gevolgen heeft voor zijn toekomstplannen met David.",https://images.vrt.be/orig/2020/04/16/24e0a86a-7fc1-11ea-aae0-02b7b76bf47f.jpg
7995,Sonya vecht voor haar leven,"Willow probeert zichzelf tevergeefs te bevrijden en Toadie heeft haar berichtje nog steeds niet gezien.

Ondertussen vecht Sonya voor haar leven. Het ziet er dus naar uit dat Alice haar zin zal krijgen...

Piper staat er alleen voor in het advocatenkantoor en ze botst op een mysterieus dossier over Leo. Ze legt al snel het verband met Toadies geheime meeting en heeft alle moeite van de wereld om niet snel even een kijkje te nemen in het dossier. Kan ze zich bedwingen?",https://images.vrt.be/orig/2020/04/15/67ec70e5-7ef4-11ea-aae0-02b7b76bf47f.jpg
7996,Gary komt komt in nauwe schoentjes terecht,"Piper probeert Leo subtiel aan de tand te voelen over de mysterieuze foto die ze in zijn dossier heeft gevonden, maar ze vangt bot. Wanneer ze de kans krijgt om een kijkje te nemen in zijn computer, kan ze zich dan ook niet bedwingen.

Gary's louche bijverdienste brengt hem al snel in nauwe schoentjes.

De examenresultaten zijn binnen. Xanthe en Shane zijn in de wolken, maar Yashvi krijgt minder goed nieuws. Komen haar toekomstplannen in het gedrang?",https://images.vrt.be/orig/2020/04/17/7c0e4cf6-808c-11ea-aae0-02b7b76bf47f.jpg
7997,Leo vertelt zijn familie wat hij verbergt,"Nu Piper zijn e-mails heeft gelezen, heeft Leo geen andere keuze dan zijn familie te vertellen wat hij voor hen probeerde te verbergen. Hij kan rekenen op hun steun, maar zal die wel volstaan om hem uit de nesten te houden?

Een vergissing van Kirsha doet Paul en Jane in een wel heel compromitterende situatie belanden.

Gary probeert onder zijn job uit te komen, maar hij beseft al snel dat dat niet makkelijk zal worden.",https://images.vrt.be/orig/2020/04/20/e8d66eee-82da-11ea-aae0-02b7b76bf47f.jpg
7998,Gary sluit een deal met zijn bazen,"Gary is erin geslaagd om een deal te sluiten met zijn bazen: nog één laatste opdracht en dan wil hij niks met hun duistere zaakjes te maken hebben. Maar die opdracht loopt niet zoals gepland...

Jane schaamt zich voor haar gedrag en beseft dat ze heel wat goed te maken heeft. Niet alleen met Paul, maar ook met de Kennedy's. Zullen ze haar excuses aanvaarden?

En Toadie doet een schokkende ontdekking: Sonya's kerstcadeautjes zijn verdwenen. Vindt hij ze voor ze het ziekenhuis mag verlaten, of wordt het een trieste kerst bij de Rebecchi's?",https://images.vrt.be/orig/2020/04/20/5b602d8c-830b-11ea-aae0-02b7b76bf47f.jpg
7999,Chloe kijkt uit naar een avondje uit met David en Aaron,"Chloe kijkt uit naar een avondje uit met David en Aaron, in de hoop Elly even uit haar hoofd te zetten. Maar de avond loopt niet bepaald zoals ze had gehoopt.

Ook Gary's plan dreigt in het water te vallen. Kan hij Sheila overtuigen om haar mond te houden tegen Amy? En zijn al zijn zorgen dan wel van de baan?

Toadie krijgt onrustwekkend nieuws van de politie, maar besluit de info te verzwijgen voor Willow en focust zich op zijn gezin. Maar is dat wel een goed idee?",https://images.vrt.be/orig/2020/04/21/98ca34f8-83d6-11ea-aae0-02b7b76bf47f.jpg
8000,Chloe besluit haar gevoelens voor Elly op papier te zetten,"De buren nemen afscheid van een eenzame bewoner van Ramsay Street, iets wat vooral Toadie ontroert. Hij besluit dan ook een kerstfeest op touw te zetten om de buurt wat dichter bij elkaar te brengen.

Leo wordt letterlijk achtervolgd door zijn verleden en komt voor een dilemma te staan. Terwijl Elly vreest dat haar vriendschap met Chloe voorbij is, besluit Chloe haar gevoelens voor Elly op papier te zetten.",https://images.vrt.be/orig/2020/04/22/684680d6-84b1-11ea-aae0-02b7b76bf47f.jpg
8001,Paul en Leo denken dat ze Delaney te slim af zijn,"Paul en Leo denken dat ze Delaney te slim af zijn, maar niks is minder waar: ze is op de hoogte van Pauls duistere verleden en deinst er niet voor terug om het tegen hem te gebruiken.

De Kennedy's krijgen een onuitgenodigde gast over de vloer en daar zijn vooral Bea en Elly niet bepaald gelukkig mee. Maar ook Chloe krijgt het zwaar te verduren, want haar brief voor Elly wordt onderschept en de gevolgen zijn niet min.",https://images.vrt.be/orig/2020/04/24/bf778dee-8615-11ea-aae0-02b7b76bf47f.jpg
8002,De emoties lopen hoog op tijdens de organisatie van het kerstconcert,"De emoties lopen hoog op tijdens de organisatie van het kerstconcert. Net wanneer Susan de situatie met Finn achter zich wil proberen te laten, staat er een onaangename verrassing voor de deur.

Bea is nerveus voor haar optreden en wil het annuleren, maar dat is buiten Ned gerekend. Ook bij de Cannings is de spanning te snijden: Gary is onzeker over zijn relatie met Amy en Xanthe krijgt een brief van Ben.

Dipi doet een akelige toekomstvoorspelling en Paul onderneemt een gevaarlijke queeste om zijn onschuld te bewijzen.",https://images.vrt.be/orig/2020/04/27/e100b5c7-8876-11ea-aae0-02b7b76bf47f.jpg
8003,Aaron en David willen aan gezinsuitbreiding doen,"Paul is een gebroken man. Leo heeft het lot van zijn vader in handen en moet een hartverscheurende beslissing nemen.

Liz onderneemt een wanhopige poging om toenadering te zoeken tot Bea en dat is niet naar de zin van Susan, die een nieuwe schok te verwerken krijgt.

Aaron en David willen aan gezinsuitbreiding doen. Maar wat zal Mark daarvan vinden?",https://images.vrt.be/orig/2020/04/28/84a8124c-8944-11ea-aae0-02b7b76bf47f.jpg
8004,Terese kan maar niet geloven dat Leo haar hart heeft gebroken,"Terese kan maar niet geloven dat Leo haar hart heeft gebroken. En ook zijn vrienden en familie begrijpen zijn beslissing niet, maar Leo houdt vol dat dit is wat hij wil.

Maar daar is ook Delaney nog niet van overtuigd en ze besluit dan ook om Terese en Leo nog wat verder uit elkaar te drijven. Susan en Karl spreken af met de mysterieuze bondgenoot van Finn. Kan hij hen de antwoorden geven waar ze al zo lang naar op zoek zijn?",https://images.vrt.be/orig/2020/04/30/5ed8d694-8b1e-11ea-aae0-02b7b76bf47f.jpg
8005,Elly heeft een belangrijke vraag voor Chloe,"Terese voelt zich vernederd en gekwetst na de confrontatie met Leo en Delaney. Ze beseft dat ze onder ogen moet zien dat haar relatie voorbij is.

Mark en Elly vragen aan Chloe of ze hun huwelijksfeest wil organiseren. Ze stemt er tegen haar zin mee in, maar haar gevoelens voor Elly beginnen al snel op haar te wegen. Hoelang kan ze dit nog volhouden?

Xanthe moet een moeilijke beslissing nemen over haar toekomst: is ze klaar om op eigen benen te staan, of moet ze haar dromen opgeven?",https://images.vrt.be/orig/2020/05/04/375f0c64-8de3-11ea-aae0-02b7b76bf47f.jpg
8006,Xanthe heeft iets te vieren,"Chloe doet haar best om haar gevoelens voor Elly aan de kant te zetten, maar ze kan haar en Mark amper onder ogen komen. Ze ziet zich dan ook verplicht om een hartverscheurende beslissing te nemen.

Gary wil absoluut op het rechte pad blijven, maar dat is makkelijker gezegd dan gedaan.

De toekomst ziet er rooskleurig uit voor Xanthe en dat wil ze vieren met Yashvi en Piper. Maar Yashvi kijkt iets te diep in het glas en brengt zo onbewust het leven van haar eigen moeder in gevaar.",https://images.vrt.be/orig/2020/05/04/aa254bd5-8dfb-11ea-aae0-02b7b76bf47f.jpg
8007,Shane is razend op Gary en reageert zich af,"Shane is razend op Gary en reageert zijn angst en woede op hem af. Maar die relatieve opluchting is van korte duur, want Dipi's leven hangt plots aan een zijden draadje.

Gary voelt zich schuldig over wat hij Dipi heeft aangedaan en wil het koste wat het kost goedmaken. Maar tegelijkertijd moet hij ook van de gestolen goederen zien af te komen én zijn relatie met Amy proberen te redden. En tot overmaat van ramp komt Xanthe te weten wat hij heeft gedaan.",https://images.vrt.be/orig/2020/05/05/d0f984d6-8ecb-11ea-aae0-02b7b76bf47f.jpg
8008,Liz voelt zich uitgesloten door haar dochters,"Dipi is opvallend mild voor Gary, wat niet gezegd kan worden van Shane. Nu Amy alles heeft verteld aan Paul, vreest Gary voor represailles. Maar Paul, die zelf nog steeds achtervolgd wordt door zijn duistere verleden, reageert niet zoals verwacht.

Liz voelt zich uitgesloten door haar dochters en wanneer ze de kans krijgt om Bea's dagboek te lezen, hoeft ze dan ook geen twee keer na te denken. En Susans obsessie met Finn dreigt haar in een wel heel lastig parket te brengen.",https://images.vrt.be/orig/2020/05/06/e2c7b831-8f70-11ea-aae0-02b7b76bf47f.jpg
8009,Kan Toadie bewijzen dat Susan onschuldig is?,"Wordt Susan vrijgesproken, of wacht er haar een lange gevangenisstraf? Toadie doet er alles aan om haar onschuld aan te tonen, maar haar recente bezoekjes aan Finn vallen niet in goede aarde bij de aanklager.

Terese neemt een enorm risico in een poging om Delaney te ontmaskeren.

Chloe gaat nog een stap verder in haar maatregelen om haar gevoelens voor Elly te onderdrukken, maar nu stelt ze ook Mark teleur.",https://images.vrt.be/orig/2020/05/07/4e3ef006-9042-11ea-aae0-02b7b76bf47f.jpg
8010,Terese gaat heel ver om haar theorie te bewijzen,"Terese is ervan overtuigd dat Delaney door Paul wordt betaald om haar relatie met Leo te ondermijnen en ze is vastberaden om dat te bewijzen. Maar daar moet ze wel heel ver voor gaan.

Na de vernietiging van het dagboek lopen de spanningen hoog op tussen Bea en haar moeder. Bea reageert dan ook woest wanneer Liz voorstelt om naar Ramsay Street te verhuizen. Kan Susan voor een compromis zorgen?",https://images.vrt.be/orig/2020/05/08/2d9211a8-9106-11ea-aae0-02b7b76bf47f.jpg
8011,Xanthe twijfelt nog steeds over haar toekomst,"Nadat ze wordt afgewezen door Paul en haar theorie dus niet blijkt te kloppen, besluit Terese haar strijd op te geven en te aanvaarden dat Leo haar niet meer wil. Ondertussen groeien Delaney en Leo steeds meer naar elkaar toe.

Xanthe twijfelt nog steeds over haar toekomst en haar familie haalt alles uit de kast om haar te overtuigen om voor haar grote droom te kiezen. Gary doet een poging om zich te excuseren bij Dipi, maar dat is absoluut niet naar de zin van Shane.",https://images.vrt.be/orig/2020/05/11/6134c264-936c-11ea-aae0-02b7b76bf47f.jpg
8012,Bea is nerveus voor haar eerste optreden,"Wanneer Amy het voor hem opneemt, groeit bij Gary weer de hoop dat hun relatie misschien toch niet voorbij is. Helaas denkt Amy daar anders over.

Xanthe staat op het punt Ramsay Street achter zich te laten en neemt afscheid van familie en vrienden. Ze overweegt ook langs te gaan bij Finn, maar is dat wel een goed idee?

Bea is nerveus voor haar eerste optreden en wordt daarbij niet geholpen door een humeurige Sheila. Gelukkig staat Ned wel voor haar klaar.",https://images.vrt.be/orig/2020/05/12/d5d493e9-9459-11ea-aae0-02b7b76bf47f.jpg
8013,Amy wil er tussenuit en besluit Jimmy te gaan bezoeken in New York,"Amy wil er even tussenuit en besluit Jimmy te gaan bezoeken in New York. Ondertussen moedigt Sheila haar zoon aan om niet op te geven en te blijven vechten voor zijn relatie met Amy.

Fay komt op bezoek en Chloe ziet er tegenop om haar moeder te vertellen over haar gezondheidstoestand. Maar al snel blijkt dat Chloe geen andere keuze zal hebben dan eerlijk te zijn. Mark wil de draad van zijn carrière weer oppikken, maar dan moet hij wel een moeilijke beslissing nemen.",https://images.vrt.be/orig/2020/05/13/7c54ae0d-952e-11ea-aae0-02b7b76bf47f.jpg
8014,Leo krijgt het moeilijk om de komedie met Delaney vol te houden,"Chloe brengt haar moeder op de hoogte van haar erfelijke aandoening en de mogelijkheid dat voor haar dezelfde diagnose zal gelden. Hoewel het een enorme klap is voor Fay, probeert ze zich sterk te houden. En Chloe vindt troost in de armen van Elly.

Leo krijgt het steeds moeilijker om de komedie met Delaney vol te houden, en dat is ook David niet ontgaan. Susan slaagt er maar niet in om Finn uit haar hoofd te krijgen en zoekt opnieuw zijn broer Shaun op. Maar dat is niet naar de zin van Bea.",https://images.vrt.be/orig/2020/05/14/23694826-9625-11ea-aae0-02b7b76bf47f.jpg
8015,Leo maakt een einde aan zijn relatie met Delaney,"Leo maakt een einde aan zijn relatie met Delaney en denkt dat daarmee de kous af is. Maar dan arriveert haar vader in Erinsborough, en die zint op wraak.

Nu Susan naar Sydney is vertrokken, besluit Bea zelf contact te zoeken met Shaun. Wat is ze van plan?

Op aanraden van Fay probeert Mark zijn zus te overtuigen om toch naar zijn huwelijk te komen, maar Chloe houdt voet bij stuk: ze kan het niet aan om de persoon van wie ze houdt te zien trouwen met haar broer.",https://images.vrt.be/orig/2020/05/15/8875c5c4-9693-11ea-aae0-02b7b76bf47f.jpg
8016,De paniek is groot na de schietpartij in de Waterhole,"De paniek is groot na de schietpartij in de Waterhole. Bij Paul en Leo overheerst een schuldgevoel, want het is de vrouw van wie ze allebei houden die het slachtoffer is geworden van hun daden.

Delaney beweert dat ze er niks mee te maken heeft, maar Leo weigert haar te geloven en wil dat ze schuld bekent. Mark en Ned zetten een klopjacht in op Ivan, terwijl Elly oog in oog komt te staan met Raymond.",https://images.vrt.be/orig/2020/05/18/65dcca6a-9916-11ea-aae0-02b7b76bf47f.jpg
8017,Leo zet zijn eigen leven op het spel,"De gijzelingsactie in Harold's loopt helemaal uit de hand. Terwijl bezorgde buren en familieleden zich naar het complex haasten, probeert Elly te onderhandelen met Raymond.

Ook Leo zet zijn eigen leven op het spel om dat van zijn geliefden te redden. Paul wordt overmand door schuldgevoelens en wijkt niet van Tereses ziekbed, iets wat niet in goede aarde valt bij Jane.",https://images.vrt.be/orig/2020/05/19/4495186f-99ba-11ea-aae0-02b7b76bf47f.jpg
8018,Leo betrapt Delaney tijdens een mysterieus telefoontje,"Jane maakt zich zorgen over Pauls gevoelens voor Terese en stelt hem voor een ultimatum: als hij een relatie wil met haar, moet hij het contact met Terese verbreken. Paul stemt in, maar hij wordt al snel op de proef gesteld.

Ook Piper merkt dat er nog steeds iets speelt tussen haar moeder en Paul. Leo betrapt Delaney tijdens een mysterieus telefoontje en besluit zelf op onderzoek uit te gaan.",https://images.vrt.be/orig/2020/05/20/0ab9416d-9a9c-11ea-aae0-02b7b76bf47f.jpg
8019,Neds ingreep pakt helemaal verkeerd uit,"Nu Paul en Leo weten hoe de vork in de steel zit, zijn ze opgelucht, maar ook kwaad. Ze wijzen de veroorzaker van al hun problemen de deur, niet wetende dat hij nu zijn pijlen op David zal richten.

Paul zet zijn eigen gevoelens voor Terese opzij en smeekt haar om Leo nog een kans te geven. Maar Piper is er niet van overtuigd dat dat is wat ze wil. Ned maakt zich zorgen over Bea en grijpt in, maar dat pakt helemaal verkeerd uit.",https://images.vrt.be/orig/2020/05/22/2b31d5f0-9c04-11ea-aae0-02b7b76bf47f.jpg
8020,Karl probeert te bemiddelen,"Karl probeert te bemiddelen tussen Bea en Ned en moedigt hen aan om eerlijk te zijn tegen elkaar, maar dat heeft niet helemaal het gewenste effect.

Gary helpt Dipi bij het verwerken van haar posttraumatische stress en dat leidt tot een bijzondere nacht, waar Shane niks van mag weten. Sonya en Toadie zien een mogelijkheid om een van hun fantasieën waar te maken, maar een brandalarm maakt daar een abrupt einde aan.",https://images.vrt.be/orig/2020/05/22/a5b4035a-9c0c-11ea-aae0-02b7b76bf47f.jpg
8021,Nell brengt Sonya op een idee,"Sheila polst naar wat Gary en Dipi hebben uitgestoken vorige nacht. Ze verzinnen allebei een smoesje. Sheila weet dit maar al te goed en denkt dat er meer aan de hand is.

Chloe en Elly brengen veel tijd door samen en dat gaat niet onopgemerkt voorbij. Fay en Aaron stellen zich vragen bij hun vriendschap.

Nell brengt Sonya op een idee. In het begin is Toadie niet echt fan, maar hij moet later toch toegeven dat het niet zo'n slecht idee is.",https://images.vrt.be/orig/2020/05/26/15fb4906-9f93-11ea-aae0-02b7b76bf47f.jpg
8022,Aaron belooft Chloe dat haar geheim veilig is bij hem,"Leo probeert Terese ervan te overtuigen om hem terug te nemen, maar zal hij overtuigend genoeg zijn, zeker nu er duidelijk nog een vonk is tussen haar en Paul?

Aaron belooft Chloe dat haar geheim veilig is bij hem. Hij probeert zijn zus op te vrolijken, maar of zijn verrassing het gewenste affect zal hebben is nog maar de vraag.

Fay krijgt te horen dat ze huntington heeft en beslist om mee te gaan met Tyler. En intussen maakt David zich zorgen over zijn job.",https://images.vrt.be/orig/2020/05/27/d7c640fc-a00b-11ea-aae0-02b7b76bf47f.jpg
8023,Leo vertelt Paul dat hij en Terese weer samen zijn,"David maakt zich ongerust wanneer hij ontdekt dat Reggie nergens te vinden is. Samen met Aaron gaat hij op zoek en ze komen uit bij Vera, die vindt dat zij de hond zou moeten houden.

Leo vertelt Paul dat hij en Terese weer samen zijn. Paul doet alsof het hem niets doet. Bea is klaar voor haar eerste optreden, maar er komt niet veel volk opdagen.",https://images.vrt.be/orig/2020/05/27/09870c50-a029-11ea-aae0-02b7b76bf47f.jpg
8024,Yashvi merkt een spanning op tussen haar ouders,"Leo gaat Terese zonder Paul uit het ziekenhuis halen. Terese is teleurgesteld dat Paul er niet bij is. Ze belt hem, maar hij ontwijkt haar.

Yashvi merkt een spanning op tussen haar ouders en haar ongerustheid wordt alsmaar groter wanneer Sheila haar inlicht over haar vermoedens.

Bea en Ned zitten in de problemen na hun geruzie in Lassiters en denken allebei dat ze gelijk hadden. Zullen ze hun geschillen opzij kunnen schuiven?",https://images.vrt.be/orig/2020/05/28/3b66f692-a0cb-11ea-aae0-02b7b76bf47f.jpg
8025,Aaron maakt zich zorgen om Chloe,"Dipi en Gary vertellen wat er echt gebeurd is, maar daarmee is de spanning niet weg. Amy en Shane begrijpen niet waarom ze dat hebben gedaan. Gary blijft intussen hopen op een verzoening tussen hem en Amy.

Toadie en Sonya krijgen een go voor hun vriendschapsboom en gaan goed van start, maar de vreugde is van korte duur.

Aaron maakt zich zorgen over Chloe's gevoelens voor Elly en houdt hen in de gaten, maar dit is niet naar de zin van Chloe zelf.",https://images.vrt.be/orig/2020/05/29/65705df8-a180-11ea-aae0-02b7b76bf47f.jpg
8026,Sonya lijkt snel te herstellen,"Sonya herstelt snel en vindt dat Toadie zich zorgen maakt over niks, maar ze laat zich toch overhalen om zich te laten onderzoeken in het ziekenhuis. Daar blijkt al snel dat er meer aan de hand is en dat Sonya een hartverscheurende beslissing zal moeten nemen.

Aaron maakt zich zorgen over Chloe en haar afwijzende houding tegenover Mel. Samen met Elly probeert hij te weten te komen waarom hun relatie zo verzuurd is.",https://images.vrt.be/orig/2020/06/02/a5cc7af1-a4a2-11ea-aae0-02b7b76bf47f.jpg
8027,Mel verontschuldigt zich bij Chloe,"Toadie en Sonya houden zich sterk voor elkaar en voor Nell, maar zijn op van de zenuwen voor Sonya's ingreep. Tijdens de operatie blijkt dat die zorgen terecht waren, want Karl heeft slecht nieuws voor hen.

Mel verontschuldigt zich bij Chloe en slaagt er ook in om haar vrienden en familie te overtuigen van haar goede bedoelingen. Maar kan ze ook Chloe overhalen om haar een tweede kans te geven?",https://images.vrt.be/orig/2020/06/02/888960b5-a4bd-11ea-aae0-02b7b76bf47f.jpg
8028,Terese stort haar hart uit bij Piper,"Toadie en Sonya proberen de vreselijke diagnose te verwerken. Met Karl aan hun zijde besluiten ze het gevecht aan te gaan, hoe zwaar het ook zal worden.

Terese mist de aandacht van Paul en stort haar hart uit bij Piper, die zelf ook iets te bekennen heeft.

Het is een belangrijke dag voor Mark, want vandaag valt de beslissing over zijn terugkeer naar het politiekorps. Maar wanneer blijkt dat Toadie de zaak aan een andere advocaat heeft doorgegeven, zakt de moed Mark in de schoenen.",https://images.vrt.be/orig/2020/06/03/47803dbd-a568-11ea-aae0-02b7b76bf47f.jpg
8029,Mel saboteert Amy's plannen,"Hoewel Terese razend is op Piper, beseft ze dat haar dochter gelijk heeft: als ze nog gevoelens heeft voor Paul, moet ze haar relatie met Leo beëindigen. Ze staat voor een moeilijke keuze, maar krijgt daarbij steun uit onverwachte hoek.

Bea en Chloe zijn het niet eens over de invulling van Elly's vrijgezellenfeest. Mel saboteert Amy's plannen voor het nieuwe bouwproject. Wat voert ze in haar schild?",https://images.vrt.be/orig/2020/06/05/14f68392-a70b-11ea-aae0-02b7b76bf47f.jpg
8030,Amy vindt een troostende schouder bij Gary,"Mel is erin geslaagd Amy's afspraken met mogelijke kopers in de war te sturen en werpt zichzelf op als redder in nood. En dat maakt indruk op Paul.

Amy vindt een troostende schouder bij Gary, maar wanneer ze haar gevoelens voor hem weer voelt opborrelen, slaat ze in paniek en laat ze hem verweesd achter.

Aaron maakt zich zorgen over Elly's jaloerse gedrag en moedigt Chloe aan om Mel een kans te geven.",https://images.vrt.be/orig/2020/06/08/bdf0a2d0-a960-11ea-aae0-02b7b76bf47f.jpg
8031,Sonya houdt zich sterk tijdens haar eerste chemosessie,"Sonya houdt zich sterk tijdens haar eerste chemosessie en is ook vastberaden om Nell te vergezellen op haar eerste schooldag.

Toadie probeert zijn verdriet en angst te verbijten, maar staat op het punt te bezwijken onder de druk. Vooral wanneer vrienden en familie lastige vragen beginnen te stellen.

Amy voelt zich schuldig over hoe ze Gary heeft behandeld en biedt hem haar excuses aan. Maar dat volstaat niet voor een woedende Sheila.",https://images.vrt.be/orig/2020/06/09/ca43ebbd-aa3c-11ea-aae0-02b7b76bf47f.jpg
8032,De trouwplannen van Elly en Mark blijven voor spanningen zorgen,"Wanneer Sonya te weten komt dat Toadie zijn frustraties heeft afgereageerd op zijn familieleden, beseft ze dat hij deze last niet alleen kan dragen. Ze brengt Shane op de hoogte, die Toadie meteen verzekert dat hij op zijn onvoorwaardelijke steun kan rekenen. Maar hij beseft nog niet hoe diep zijn broer eigenlijk zit.

De trouwplannen van Elly en Mark blijven voor spanningen zorgen met Chloe. En dat zet nu ook Piper aan het denken.",https://images.vrt.be/orig/2020/06/10/4fad8424-ab56-11ea-aae0-02b7b76bf47f.jpg
8033,Elly's vrijgezellenavond is een groot succes,"Wanneer Paul aan het flirten slaat met een klant, reageert Terese met een jaloerse uitbarsting. De spanning tussen de twee is duidelijk te snijden. Kunnen ze zich bedwingen?

Elly's vrijgezellenavond is een groot succes, behalve voor Chloe. Ze probeert haar gedachten te verzetten met Mel, maar of dat zo'n goed idee is...

Sonya maakt zich ernstige zorgen over de manier waarop Toadie met haar ziekte omgaat.",https://images.vrt.be/orig/2020/06/11/b2b69f16-abe3-11ea-aae0-02b7b76bf47f.jpg
8034,Terese probeert haar gevoelens voor Paul te onderdrukken,"Terese probeert haar gevoelens voor Paul te onderdrukken en zich te focussen op haar relatie met Leo, maar krijgt het daar steeds moeilijker mee. Paul stort dan weer zijn hart uit bij Leo, wat Terese ertoe aanzet een hartverscheurende beslissing te nemen.

Aaron confronteert Elly met de onredelijke manier waarop ze Chloe behandelt.

Bea maakt zich zorgen over de toekomst van de garage. Komt haar job in het gedrang?",https://images.vrt.be/orig/2020/06/12/f61bd920-aca6-11ea-aae0-02b7b76bf47f.jpg
8035,Toadie en Sonya staan voor de zoveelste tegenslag,"Elly wil er alles aan doen om te vermijden dat Mel Mark op de hoogte brengt van wat er tussen haar en Chloe is gebeurd. Maar Mel heeft zo haar eigen manier om met de situatie om te gaan.

Toadie en Sonya krijgen een zoveelste tegenslag te verwerken: Andrea eist het hoederecht over Hugo en deinst er niet voor terug om het spel vuil te spelen.

Bea zal alles uit de kast moeten halen om Lucas te overtuigen de garage niet aan Mel te verkopen.",https://images.vrt.be/orig/2020/06/15/8f5cb9a8-aedf-11ea-aae0-02b7b76bf47f.jpg
8036,Amy en Gary groeien voorzichtig weer naar elkaar toe,"Toadie wil niet dat Andrea en haar advocaten te weten komen dat Sonya kanker heeft. Maar dat is buiten Sonya zelf gerekend, die het heft in eigen handen neemt. Brengt ze zo het hoederecht over Hugo in het gevaar?

Chloe en Mel tasten de grenzen van hun vriendschap af.

Amy en Gary groeien voorzichtig weer naar elkaar toe, maar dat is niet naar de zin van Sheila. Wordt Gary opnieuw het slachtoffer van de bemoeienissen van zijn moeder?",https://images.vrt.be/orig/2020/06/16/17f6f3a3-afd0-11ea-aae0-02b7b76bf47f.jpg
8037,Sonya gaat de confrontatie aan met Andrea,"Sonya verbijt haar angst en frustratie en gaat de confrontatie aan met Andrea. De riskante onderneming lijkt zijn vruchten af te werpen, maar is er iets dat Sonya verzwijgt?

De Rebecchi's brengen de buren op de hoogte van Sonya's strijd tegen kanker en de reacties zijn hartverwarmend. Maar het is een schok, vooral voor Terese. En het is Paul, niet Leo, die haar de steun kan bieden die ze nodig heeft. Wat betekent dit voor haar relatie?",https://images.vrt.be/orig/2020/06/17/4733aa9e-b072-11ea-aae0-02b7b76bf47f.jpg
8038,Terese wil haar relatie een laatste kans geven,"Leo is ondersteboven van de afwijzing van Terese. Ondanks haar gevoelens voor Paul wil Terese haar relatie met Leo nog een laatste kans geven, maar het is duidelijk dat ze zich er niet goed bij voelt.

Wanneer Sonya te weten komt dat Mark zijn trouwplannen wil uitstellen, besluit ze hem eens flink de les te lezen.

Toadie raakt verwikkeld in de vete tussen Gary, Sheila en Amy. En dat tot groot jolijt van Sonya, die met volle teugen geniet van de kleine dingen in het leven: roddelen over de buren.",https://images.vrt.be/orig/2020/06/18/57fdbe01-b148-11ea-aae0-02b7b76bf47f.jpg
8039,Chloe wil haar ex een nieuwe kans geven,"Leo stort zijn gebroken hart uit bij Paul, die hem alle steun en troost wil bieden die hij nodig heeft. Tot hij te weten komt waarom Terese een einde heeft gemaakt aan hun relatie. Geven Paul en Terese eindelijk toe aan hun jarenlange gevoelens voor elkaar?

Chloe en Mel groeien steeds meer naar elkaar toe en Chloe voelt zich klaar om haar ex een nieuwe kans te geven. Maar dat is duidelijk niet naar de zin van Elly.",https://images.vrt.be/orig/2020/06/19/08ea8820-b205-11ea-aae0-02b7b76bf47f.jpg
